0x000489d8: d2800040 97feffe2 00000002 00000008 
0x000489e8: 00000002 00000008 \textcolor{red}{910003fd b9001fbf}
0x000489f8: \underline{\textcolor{red}{b9001bbf b90017bf} \textcolor{blue}{11000400 b90017a0}}
0x00048a08: \underline{\textcolor{blue}{b9401ba0 11000400} \textcolor{green}{b9001ba0 b9401ba0}}
0x00048a18: \underline{\textcolor{green}{7100c41f 54fffeed}} b9401fa0 11000400 
0x00048a28: b9001fa0 b9401fa0 81040814 77777777 